Ruch rowerowy w Gdańsku
…
2.1 Suma przejazdów z
podziałem na stację

suma_per_stacja <- przejazdy %>%
  group_by(Stacja) %>%
  summarise(SumaPrzejazdow = sum(Licznik, na.rm = TRUE)) %>%
  arrange(desc(SumaPrzejazdow))

print(suma_per_stacja)

## # A tibble: 27 × 2
##    Stacja                     SumaPrzejazdow
##    <fct>                               <dbl>
##  1 Pas Nadmorski                    6765929 
##  2 al. Zwycięstwa                   6249800 
##  3 ul. 3 Maja                       4102298 
##  4 al. Grunwaldzka (Wrzeszcz)       3861112 
##  5 al. Grunwaldzka (UG)             2636624 
##  6 Błędnik                          2250485 
##  7 al. Hallera                      2176510 
##  8 ul. Kartuska                     1899110.
##  9 ul. Chłopska                     1824906 
## 10 Kanał Raduni                     1672025 
## # ℹ 17 more rows
…
